{
  "coolPeople": [
      "448354605617643520", 
      "433790467830972417", 
      "231777839576252417", 
      "285992938314661899",
      "231704701433937931",
      "324937993972350976",
      "336492042299637771",
      "273867501006225419",
      "331870539897372672",
      "304000458144481280",
      "239787232666451980",
      "264970229514371072",
      "254310746450690048",
      "358390849807319040",
      "211011138656272386",
      "266472557740425216",
      "102943767346057216"
  ]
}